{
    "list": [
        {
            "oid": "65",
            "uid": "7",
            "sid": "1",
            "oprice": "650.00",
            "oall_price": "225.00",
            "opsprice": null,
            "opay_state": "1",
            "oth_state": "1",
            "odispatch": "0",
            "num": "1",
            "spcid": "1",
            "splist": [
                {
                    "olprice": "1599.00",
                    "olnumber": "1",
                    "spid": "4",
                    "spname": "OPPO A37\u5168\u7f51\u901a\u624b\u673aa37m\u79fb\u52a8\u8054\u901a\u7535\u4fe14G\u5b89\u5353\u667a\u80fd5\u82f1\u5bf8\u5c4fa57",
                    "spshop_price": "1599.00",
                    "spimage": "products\/20180516\/20180516103557_32900.jpg",
                    "sname": "\u6c47\u6d0b\u5546\u57ce"
                }
            ]
        },
        {
            "oid": "64",
            "uid": "7",
            "sid": "1",
            "oprice": "640.00",
            "oall_price": "225.00",
            "opsprice": null,
            "opay_state": "0",
            "oth_state": "0",
            "odispatch": "0",
            "num": "1",
            "spcid": "1",
            "splist": [
                {
                    "olprice": "1599.00",
                    "olnumber": "1",
                    "spid": "4",
                    "spname": "OPPO A37\u5168\u7f51\u901a\u624b\u673aa37m\u79fb\u52a8\u8054\u901a\u7535\u4fe14G\u5b89\u5353\u667a\u80fd5\u82f1\u5bf8\u5c4fa57",
                    "spshop_price": "1599.00",
                    "spimage": "products\/20180516\/20180516103557_32900.jpg",
                    "sname": "\u6c47\u6d0b\u5546\u57ce"
                }
            ]
        }
    ],
    "pageNo": 1,
    "count": "4",
    "previousPage": 1,
    "nextPage": 2,
    "pageSum": 2
}